xpm_cdc.sv,systemverilog,xil_defaultlib,../../../../../../../Xilinx/Vivado/2017.3/data/ip/xpm/xpm_cdc/hdl/xpm_cdc.sv,incdir="../../../../Lab2.srcs/sources_1/ip/clk_wiz_0"
xpm_VCOMP.vhd,vhdl,xpm,../../../../../../../Xilinx/Vivado/2017.3/data/ip/xpm/xpm_VCOMP.vhd,incdir="../../../../Lab2.srcs/sources_1/ip/clk_wiz_0"
glbl.v,Verilog,xil_defaultlib,glbl.v
