verilog xil_defaultlib --include "../../../ipstatic" \
"../../../../Lab4.srcs/sources_1/ip/clk_wiz_0/clk_wiz_0_clk_wiz.v" \
"../../../../Lab4.srcs/sources_1/ip/clk_wiz_0/clk_wiz_0.v" \

verilog xil_defaultlib "glbl.v"

nosort
