// Mem file initialization records.
//
// SW Build 2018833 on Wed Oct  4 19:58:22 MDT 2017
// Vivado v2017.3 (64-bit)
// Copyright 1986-2017 Xilinx, Inc. All Rights Reserved.
// Created on Monday February 26, 2018 - 10:19:27 am, from:
//
//     Map file     - C:\Users\C19Jeremy.Schwartz\Documents\ece_383_schwartz\Lecture_18\code\project\Lecture_18.srcs\sources_1\bd\design_1\design_1.bmm
//     Data file(s) - c:/Users/C19Jeremy.Schwartz/Documents/ece_383_schwartz/Lecture_18/code/project/Lecture_18.srcs/sources_1/bd/design_1/ip/design_1_microblaze_0_0/data/mb_bootloop_le.elf
//
// Address space 'design_1_i_microblaze_0.design_1_i_microblaze_0_local_memory_lmb_bram_ADDR_SPACE', bit lane [31:0].
//
// Bus width = 32 bits, number of bus blocks = 1.

@00000000
    B8000000
