Design Route Status
                                               :      # nets :
   ------------------------------------------- : ----------- :
   # of logical nets.......................... :         663 :
       # of nets not needing routing.......... :         260 :
           # of internally routed nets........ :         260 :
       # of routable nets..................... :         403 :
           # of fully routed nets............. :         403 :
       # of nets with routing errors.......... :           0 :
   ------------------------------------------- : ----------- :

